{
    "generationTool": "pwabuilder",
    "generationToolVersion": "2.0.3-rc.0",
    "platformId": "cordova",
    "platformPackage": "pwabuilder-cordova",
    "platformVersion": "2.0.0-rc.3",
    "generatedFrom": "CLI",
    "generationDate": "2019-09-06 17:07:18 Z",
    "generatedURL": "https://www.temjob.net/superpwa-manifest.json"
}